{
    "info": {
        "name": "Cabeçalho",
        "description": ""
    },
    "unique": true,
    "options": {
        "increments": true,
        "timestamps": true,
        "draftAndPublish": true
    },
    "attributes": [
        {
            "key": "background_color",
            "type": "color",
            "label": "Cor",
            "queue": 1,
            "value": "#FFF",
            "required": true
        },
        {
            "key": "img",
            "type": "img",
            "label": "Imagem",
            "queue": 2,
            "value": "https://s3.amazonaws.com/files.convem.me/general-images/convemstore.com/logo_convem.png",
            "helper": "Utilize a marcação para cortar a imagem",
            "required": true
        }
    ],
    "collectionName": "headers"
}